\begin{tikzpicture}[fda]
  % Nodes
  \node[rva] (rv0) at (0, 1.5) {$\vec{r}(t)$\\$\vec{v}(t)$};
  \node[force] (F0) at (0, 1) {$\vec{F}(t)$};
  \node[rva] (a0) at (0, 0.5) {$\vec{a}(t)$};

  \node[rva] (rv1) at (1.5, 1.5) {$\vec{r}(t + \delta t)$\\$\vec{v}(t + \delta t)$};
  \node[force] (F1) at (1.5, 1) {$\vec{F}(t + \delta t)$};
  \node[rva] (a1) at (1.5, 0.5) {$\vec{a}(t + \delta t)$};

  \node[rva] (rv2) at (3, 1) {$\ldots$};

  \node[timeline] (t0) at (0, 0) {$t$};
  \node[timeline] (t1) at (1.5, 0) {$t + \delta t$};
  \node[timeline] (t2) at (3, 0) {$t + 2\delta t$};

  % Edges
  \draw[arrow] (rv0) -- (F0) -- (a0) -- (rv1);
  \draw[arrow] (rv0) -- (rv1);
  \draw[arrow] (rv1) -- (F1) -- (a1) -- (rv2);
  \draw[arrow] (rv1) -- (rv2);
  \draw[arrow] (t0) -- (t1) -- (t2);
\end{tikzpicture}
